[
  {
    "id": 1,
    "title": "Matahari",
    "author": "Chris",
    "price": "104.000",
    "publiser": "PT Edie"
  },
  {
    "id": 2,
    "title": "Bulan",
    "author": "Pita",
    "price": "80.000",
    "publiser": "PT Rinie"
  }
]